[
    {
        "name": "user1",
        "id": 1,
        "sytem_user": true
    },
    {
        "name": "user2",
        "id": 2,
        "sytem_user": true
    },
    {
        "name": "user3",
        "id": 3,
        "sytem_user": true
    },
    {
        "name": "user4",
        "id": 4,
        "sytem_user": true
    },
    {
        "name": "user5",
        "id": 5,
        "sytem_user": true
    }
]